10.0.0.2
6039
80000000
00000000
aaaaffff
00000000
## Begin
# BCLK_MODE, 011bin == 3hex
00000000
00000003
# BCKL_TRGBURST
00000001
#00000008 = (8+1)*3 = 27 time bins
00000006
#00000004 = (4+1)*3 = 15 time bins
# BCKL_FREQ, 10000dec == 2710hex
00000002
#000003E8
#000007D0
#000009C4
#00000fa0
00002710
#00001388
###0000186A
#000030D4
#00004E20
#000061A8
#00009C40
# BCKL_TRGDELAY, 256dec == 100hex
00000003
#000000fa
00000103
# BCKL_TPDELAY, 84hex == 132 dec
00000004
00000084
#00000096
# BCKL_ROSYNC, 0x12c == 3000
00000005
#0000012c
#000000fa
00000140
# EVBLD_CHMASK, 0x77 == 0b1111
00000008
#0000000F
0000003F
#0000FFFF
# EVBLD_DATALENGTH, 0xfa0 = 4000
00000009
#000009c4
#00000fa0
00000c1c
# EVBLD_MODE
0000000a
#00000002
00000000
# EVBLD_EVENTINFOTYPE
0000000b
00000000
# EVBLD_EVENTINFODATA
0000000c
#00000200
aabb0bb8
# end
ffffffff
00000001
